verilog_labs/cpu_build/part 3/cpu_wavedata.vcd
$date
	Wed Jun  4 09:25:13 2025
$end
$version
	Icarus Verilog
$end
$timescale
	1s
$end
$scope module cpu_tb $end
$var wire 32 ! PC [31:0] $end
$var wire 32 " INSTRUCTION [31:0] $end
$var reg 1 # CLK $end
$var reg 1 $ RESET $end
$scope module mycpu $end
$var wire 1 # CLK $end
$var wire 32 % INSTRUCTION [31:0] $end
$var wire 1 $ RESET $end
$var wire 8 & neg [7:0] $end
$var wire 3 ' WRITEREG [2:0] $end
$var wire 8 ( REGOUT2 [7:0] $end
$var wire 8 ) REGOUT1 [7:0] $end
$var wire 3 * READREG2 [2:0] $end
$var wire 3 + READREG1 [2:0] $end
$var wire 8 , MUXOUT2 [7:0] $end
$var wire 8 - MUXOUT1 [7:0] $end
$var wire 8 . IMMEDIATE [7:0] $end
$var wire 8 / ALURESULT [7:0] $end
$var reg 3 0 ALUOP [2:0] $end
$var reg 1 1 MUX1 $end
$var reg 1 2 MUX2 $end
$var reg 32 3 PC [31:0] $end
$var reg 32 4 PCREG [31:0] $end
$var reg 1 5 WRITEENABLE $end
$var reg 8 6 opcode [7:0] $end
$scope module mux1 $end
$var wire 8 7 IN2 [7:0] $end
$var wire 1 1 S $end
$var wire 8 8 OUT [7:0] $end
$var wire 8 9 IN1 [7:0] $end
$upscope $end
$scope module mux2 $end
$var wire 8 : IN1 [7:0] $end
$var wire 8 ; IN2 [7:0] $end
$var wire 1 2 S $end
$var wire 8 < OUT [7:0] $end
$upscope $end
$scope module myalu $end
$var wire 8 = DATA2 [7:0] $end
$var wire 3 > SELECT [2:0] $end
$var wire 8 ? orOut [7:0] $end
$var wire 8 @ forwardOut [7:0] $end
$var wire 8 A andOut [7:0] $end
$var wire 8 B addOut [7:0] $end
$var wire 8 C DATA1 [7:0] $end
$var reg 8 D RESULT [7:0] $end
$scope module addUnit $end
$var wire 8 E DATA2 [7:0] $end
$var wire 8 F RESULT [7:0] $end
$var wire 8 G DATA1 [7:0] $end
$upscope $end
$scope module andUnit $end
$var wire 8 H DATA2 [7:0] $end
$var wire 8 I RESULT [7:0] $end
$var wire 8 J DATA1 [7:0] $end
$upscope $end
$scope module forwardUnit $end
$var wire 8 K DATA [7:0] $end
$var wire 8 L RESULT [7:0] $end
$upscope $end
$scope module orUnit $end
$var wire 8 M DATA2 [7:0] $end
$var wire 8 N RESULT [7:0] $end
$var wire 8 O DATA1 [7:0] $end
$upscope $end
$upscope $end
$scope module myregister $end
$var wire 1 # CLK $end
$var wire 8 P IN [7:0] $end
$var wire 3 Q INADDRESS [2:0] $end
$var wire 8 R OUT1 [7:0] $end
$var wire 3 S OUT1ADDRESS [2:0] $end
$var wire 8 T OUT2 [7:0] $end
$var wire 3 U OUT2ADDRESS [2:0] $end
$var wire 1 $ RESET $end
$var wire 1 5 WRITE $end
$var integer 32 V i [31:0] $end
$upscope $end
$upscope $end
$upscope $end
$scope module cpu_tb $end
$scope module mycpu $end
$scope module myregister $end
$var reg 8 W \Register[0] [7:0] $end
$upscope $end
$upscope $end
$upscope $end
$scope module cpu_tb $end
$scope module mycpu $end
$scope module myregister $end
$var reg 8 X \Register[1] [7:0] $end
$upscope $end
$upscope $end
$upscope $end
$scope module cpu_tb $end
$scope module mycpu $end
$scope module myregister $end
$var reg 8 Y \Register[2] [7:0] $end
$upscope $end
$upscope $end
$upscope $end
$scope module cpu_tb $end
$scope module mycpu $end
$scope module myregister $end
$var reg 8 Z \Register[3] [7:0] $end
$upscope $end
$upscope $end
$upscope $end
$scope module cpu_tb $end
$scope module mycpu $end
$scope module myregister $end
$var reg 8 [ \Register[4] [7:0] $end
$upscope $end
$upscope $end
$upscope $end
$scope module cpu_tb $end
$scope module mycpu $end
$scope module myregister $end
$var reg 8 \ \Register[5] [7:0] $end
$upscope $end
$upscope $end
$upscope $end
$scope module cpu_tb $end
$scope module mycpu $end
$scope module myregister $end
$var reg 8 ] \Register[6] [7:0] $end
$upscope $end
$upscope $end
$upscope $end
$scope module cpu_tb $end
$scope module mycpu $end
$scope module myregister $end
$var reg 8 ^ \Register[7] [7:0] $end
$upscope $end
$upscope $end
$upscope $end
$enddefinitions $end
$comment Show the parameter values. $end
$dumpall
$end
#0
$dumpvars
bx ^
bx ]
bx \
bx [
bx Z
bx Y
bx X
bx W
bx V
bx U
bx T
bx S
bx R
bx Q
bx P
bx O
bx N
bx M
bx L
bx K
bx J
bx I
bx H
bx G
bx F
bx E
bx D
bx C
bx B
bx A
bx @
bx ?
bx >
bx =
bx <
bx ;
bx :
bx 9
bx 8
bx 7
bx 6
x5
bx 4
bx 3
x2
x1
bx 0
bx /
bx .
bx -
bx ,
bx +
bx *
bx )
bx (
bx '
bx &
bx %
1$
0#
bx "
bx !
$end
#4
1#
#5
b0 ^
b0 ]
b0 \
b0 [
b0 Z
b0 Y
b0 X
b0 W
b1000 V
b0 4
b0 !
b0 3
0$
#6
b100 4
#7
b0 +
b0 S
b101 *
b101 U
b100 '
b100 Q
b101 .
b101 ;
b1000000000000000101 "
b1000000000000000101 %
#8
b0x0x A
b0x0x I
bx1x1 ?
bx1x1 N
b101 @
b101 L
b101 ,
b101 <
b101 =
b101 E
b101 H
b101 K
b101 M
15
12
01
b0 0
b0 >
b0 6
0#
#9
b101 ?
b101 N
b0 A
b0 I
b0 -
b0 8
b0 :
b101 /
b101 D
b101 P
b101 B
b101 F
b0 )
b0 C
b0 G
b0 J
b0 O
b0 R
b0 (
b0 9
b0 T
#10
b0 &
b0 7
#12
1#
#13
b100 !
b100 3
b101 [
#14
b1000 4
#15
b1001 ?
b1001 N
b1001 B
b1001 F
b1001 @
b1001 L
b1001 ,
b1001 <
b1001 =
b1001 E
b1001 H
b1001 K
b1001 M
b1 *
b1 U
b10 '
b10 Q
b1001 .
b1001 ;
b100000000000001001 "
b100000000000001001 %
#16
b1001 /
b1001 D
b1001 P
0#
#20
1#
#21
b1001 Y
b1000 !
b1000 3
#22
b1100 4
#23
b10 ?
b10 N
b100 +
b100 S
b10 B
b10 F
b10 @
b10 L
b10 ,
b10 <
b10 =
b10 E
b10 H
b10 K
b10 M
b10 *
b10 U
b110 '
b110 Q
b10 .
b10 ;
b10000001100000010000000010 "
b10000001100000010000000010 %
#24
b0 ?
b0 N
b0 B
b0 F
b0 @
b0 L
b0 ,
b0 <
b0 =
b0 E
b0 H
b0 K
b0 M
b10 /
b10 D
b10 P
02
b1 0
b1 >
b10 6
0#
#25
b1 A
b1 I
b1001 @
b1001 L
b1001 ,
b1001 <
b1001 =
b1001 E
b1001 H
b1001 K
b1001 M
b1101 ?
b1101 N
b1001 -
b1001 8
b1001 :
b1110 B
b1110 F
b101 )
b101 C
b101 G
b101 J
b101 O
b101 R
b1001 (
b1001 9
b1001 T
#26
b11110111 &
b11110111 7
b1110 /
b1110 D
b1110 P
#28
1#
#29
b1100 !
b1100 3
b1110 ]
#30
b10000 4
#31
b0 +
b0 S
b110 *
b110 U
b0 '
b0 Q
b110 .
b110 ;
b1000000000000000000000110 "
b1000000000000000000000110 %
#32
b0 0
b0 >
b1 6
0#
#33
b1110 @
b1110 L
b1110 ,
b1110 <
b1110 =
b1110 E
b1110 H
b1110 K
b1110 M
b1110 ?
b1110 N
b0 A
b0 I
b1110 -
b1110 8
b1110 :
b1001 /
b1001 D
b1001 P
b1110 B
b1110 F
b0 )
b0 C
b0 G
b0 J
b0 O
b0 R
b1110 (
b1110 9
b1110 T
#34
b1110 /
b1110 D
b1110 P
b11110010 &
b11110010 7
#36
1#
#37
b1110 W
b10000 !
b10000 3
#38
b10100 4
#39
b1 *
b1 U
b1 '
b1 Q
b1110 A
b1110 I
b1 .
b1 ;
b11100 B
b11100 F
b1110 )
b1110 C
b1110 G
b1110 J
b1110 O
b1110 R
b10000000000000001 "
b10000000000000001 %
#40
b0 A
b0 I
b1111 ?
b1111 N
b1111 B
b1111 F
b1 @
b1 L
b1 ,
b1 <
b1 =
b1 E
b1 H
b1 K
b1 M
12
b0 6
0#
#41
b0 -
b0 8
b0 :
b1 /
b1 D
b1 P
b0 (
b0 9
b0 T
#42
b0 &
b0 7
#44
1#
#45
b10100 !
b10100 3
b1 X
#46
b11000 4
#47
b10 +
b10 S
b10 '
b10 Q
b1 -
b1 8
b1 :
b10000000100000001000000001 "
b10000000100000001000000001 %
b1 (
b1 9
b1 T
#48
02
b1 0
b1 >
b10 6
b11111111 &
b11111111 7
0#
#49
b1001 ?
b1001 N
b1 A
b1 I
b1010 B
b1010 F
b1001 )
b1001 C
b1001 G
b1001 J
b1001 O
b1001 R
#50
b1010 /
b1010 D
b1010 P
#52
1#
#53
b1010 Y
b11000 !
b11000 3
#54
b11100 4
#55
bx +
bx S
bx *
bx U
bx '
bx Q
b1011 ?
b1011 N
b0 A
b0 I
bx .
bx ;
b1011 B
b1011 F
b1010 )
b1010 C
b1010 G
b1010 J
b1010 O
b1010 R
bx "
bx %
#56
bx 6
0#
#57
bx @
bx L
bx ,
bx <
bx =
bx E
bx H
bx K
bx M
bx ?
bx N
bx A
bx I
bx -
bx 8
bx :
bx B
bx F
bx )
bx C
bx G
bx J
bx O
bx R
bx (
bx 9
bx T
b1011 /
b1011 D
b1011 P
#58
bx &
bx 7
#59
bx /
bx D
bx P
#60
1#
#61
b11100 !
b11100 3
#62
b100000 4
#64
0#
#68
1#
#69
b100000 !
b100000 3
#70
b100100 4
#72
0#
#76
1#
#77
b100100 !
b100100 3
#78
b101000 4
#80
0#
#84
1#
#85
b101000 !
b101000 3
#86
b101100 4
#88
0#
#92
1#
#93
b101100 !
b101100 3
#94
b110000 4
#96
0#
#100
1#
#101
b110000 !
b110000 3
#102
b110100 4
#104
0#
#108
1#
#109
b110100 !
b110100 3
#110
b111000 4
#112
0#
#116
1#
#117
b111000 !
b111000 3
#118
b111100 4
#120
0#
#124
1#
#125
b111100 !
b111100 3
#126
b1000000 4
#128
0#
#132
1#
#133
b1000000 !
b1000000 3
#134
b1000100 4
#136
0#
#140
1#
#141
b1000100 !
b1000100 3
#142
b1001000 4
#144
0#
#148
1#
#149
b1001000 !
b1001000 3
#150
b1001100 4
#152
0#
#156
1#
#157
b1001100 !
b1001100 3
#158
b1010000 4
#160
0#
#164
1#
#165
b1010000 !
b1010000 3
#166
b1010100 4
#168
0#
#172
1#
#173
b1010100 !
b1010100 3
#174
b1011000 4
#176
0#
#180
1#
#181
b1011000 !
b1011000 3
#182
b1011100 4
#184
0#
#188
1#
#189
b1011100 !
b1011100 3
#190
b1100000 4
#192
0#
#196
1#
#197
b1100000 !
b1100000 3
#198
b1100100 4
#200
0#
#204
1#
#205
b1100100 !
b1100100 3
#206
b1101000 4
#208
0#
#212
1#
#213
b1101000 !
b1101000 3
#214
b1101100 4
#216
0#
#220
1#
#221
b1101100 !
b1101100 3
#222
b1110000 4
#224
0#
#228
1#
#229
b1110000 !
b1110000 3
#230
b1110100 4
#232
0#
#236
1#
#237
b1110100 !
b1110100 3
#238
b1111000 4
#240
0#
#244
1#
#245
b1111000 !
b1111000 3
#246
b1111100 4
#248
0#
#252
1#
#253
b1111100 !
b1111100 3
#254
b10000000 4
#256
0#
#260
1#
#261
b10000000 !
b10000000 3
#262
b10000100 4
#264
0#
#268
1#
#269
b10000100 !
b10000100 3
#270
b10001000 4
#272
0#
#276
1#
#277
b10001000 !
b10001000 3
#278
b10001100 4
#280
0#
#284
1#
#285
b10001100 !
b10001100 3
#286
b10010000 4
#288
0#
#292
1#
#293
b10010000 !
b10010000 3
#294
b10010100 4
#296
0#
#300
1#
#301
b10010100 !
b10010100 3
#302
b10011000 4
#304
0#
#308
1#
#309
b10011000 !
b10011000 3
#310
b10011100 4
#312
0#
#316
1#
#317
b10011100 !
b10011100 3
#318
b10100000 4
#320
0#
#324
1#
#325
b10100000 !
b10100000 3
#326
b10100100 4
#328
0#
#332
1#
#333
b10100100 !
b10100100 3
#334
b10101000 4
#336
0#
#340
1#
#341
b10101000 !
b10101000 3
#342
b10101100 4
#344
0#
#348
1#
#349
b10101100 !
b10101100 3
#350
b10110000 4
#352
0#
#356
1#
#357
b10110000 !
b10110000 3
#358
b10110100 4
#360
0#
#364
1#
#365
b10110100 !
b10110100 3
#366
b10111000 4
#368
0#
#372
1#
#373
b10111000 !
b10111000 3
#374
b10111100 4
#376
0#
#380
1#
#381
b10111100 !
b10111100 3
#382
b11000000 4
#384
0#
#388
1#
#389
b11000000 !
b11000000 3
#390
b11000100 4
#392
0#
#396
1#
#397
b11000100 !
b11000100 3
#398
b11001000 4
#400
0#
#404
1#
#405
b11001000 !
b11001000 3
#406
b11001100 4
#408
0#
#412
1#
#413
b11001100 !
b11001100 3
#414
b11010000 4
#416
0#
#420
1#
#421
b11010000 !
b11010000 3
#422
b11010100 4
#424
0#
#428
1#
#429
b11010100 !
b11010100 3
#430
b11011000 4
#432
0#
#436
1#
#437
b11011000 !
b11011000 3
#438
b11011100 4
#440
0#
#444
1#
#445
b11011100 !
b11011100 3
#446
b11100000 4
#448
0#
#452
1#
#453
b11100000 !
b11100000 3
#454
b11100100 4
#456
0#
#460
1#
#461
b11100100 !
b11100100 3
#462
b11101000 4
#464
0#
#468
1#
#469
b11101000 !
b11101000 3
#470
b11101100 4
#472
0#
#476
1#
#477
b11101100 !
b11101100 3
#478
b11110000 4
#480
0#
#484
1#
#485
b11110000 !
b11110000 3
#486
b11110100 4
#488
0#
#492
1#
#493
b11110100 !
b11110100 3
#494
b11111000 4
#496
0#
#500
1#
#501
b11111000 !
b11111000 3
#502
b11111100 4
