verilog_labs/cpu_build/part 3/my_test_wavedata.vcd
$date
	Wed May 28 10:18:36 2025
$end
$version
	Icarus Verilog
$end
$timescale
	1s
$end
$scope module testBed $end
$scope module test $end
$var wire 1 ! CLK $end
$var wire 8 " IN [7:0] $end
$var wire 3 # INADDRESS [2:0] $end
$var wire 8 $ OUT1 [7:0] $end
$var wire 3 % OUT1ADDRESS [2:0] $end
$var wire 8 & OUT2 [7:0] $end
$var wire 3 ' OUT2ADDRESS [2:0] $end
$var wire 1 ( RESET $end
$var wire 1 ) WRITE $end
$var integer 32 * i [31:0] $end
$upscope $end
$upscope $end
$enddefinitions $end
$comment Show the parameter values. $end
$dumpall
$end
#0
$dumpvars
bx *
0)
1(
bx '
bx &
bx %
bx $
bx #
bx "
0!
$end
#4
1!
#5
b1000 *
#8
0!
#10
0(
#12
1!
#16
0!
#20
1!
b11 %
b101 "
b11 #
1)
#23
b101 $
#24
0!
#28
1!
#30
b111100 "
b101 #
0)
#32
0!
#36
1!
#40
0!
b101 '
#42
b0 &
#44
1!
#48
0!
#50
1(
#52
1!
#53
b1000 *
#55
b0 $
#56
0!
#60
1!
0(
